ptp_slave_sync/ptp_slave_sync.sim/sim_1/behav/xsim/ptp_sync_tb.vcd
$date
   Mon Mar  9 11:23:07 2026
$end

$version
  2025.1.0
  $dumpfile ("ptp_sync_tb.vcd") 
$end

$timescale
  1ps
$end

$scope module tb_ptp_sync_wrapper $end
$var reg 1 ! clk $end
$var reg 1 " rst_n $end
$var reg 8 # rx_tdata [7:0] $end
$var reg 1 $ rx_tvalid $end
$var reg 1 % rx_tlast $end
$var reg 1 & rx_tuser $end
$var reg 80 ' phy_rx_timestamp [79:0] $end
$var reg 80 ( phy_tx_timestamp [79:0] $end
$var reg 1 ) phy_tx_ts_valid $end
$var reg 8 * tx_tdata [7:0] $end
$var reg 1 + tx_tvalid $end
$var reg 1 , tx_tlast $end
$var reg 1 - tx_tready $end
$var reg 48 . local_time_sec [47:0] $end
$var reg 32 / local_time_ns [31:0] $end
$var reg 1 0 pps_out $end
$var reg 1 1 clock_locked $end
$var reg 32 2 offset_from_master [31:0] $end
$var reg 32 3 mean_path_delay [31:0] $end
$var reg 1 4 ofm_threshold_alarm $end
$var reg 1 5 mpd_threshold_alarm $end
$var reg 3 6 ptp_port_state [2:0] $end
$var reg 1 7 grandmaster_changed $end
$var reg 64 8 current_gm_id [63:0] $end
$var reg 1 9 amt_violation $end
$var reg 1 : forced_master_event $end
$var reg 80 ; t1_val [79:0] $end
$var reg 80 < t2_hw [79:0] $end
$var reg 80 = t3_val [79:0] $end
$var reg 80 > t4_val [79:0] $end
$var reg 1 ? cfg_slave_only $end
$var reg 1 @ cfg_forced_master $end
$var reg 8 A cfg_domain_num [7:0] $end
$var reg 256 B cfg_amt_table [255:0] $end
$var reg 4 C cfg_amt_valid [3:0] $end
$var integer 32 D test_errors [31:0] $end
$scope module dut $end
$var wire 1 E clk $end
$var wire 1 F rst_n $end
$var wire 8 G rx_tdata [7:0] $end
$var wire 1 H rx_tvalid $end
$var wire 1 I rx_tlast $end
$var wire 1 J rx_tuser $end
$var wire 80 K phy_rx_timestamp [79:0] $end
$var wire 80 L phy_tx_timestamp [79:0] $end
$var wire 1 M phy_tx_ts_valid $end
$var reg 8 * tx_tdata [7:0] $end
$var reg 1 + tx_tvalid $end
$var reg 1 , tx_tlast $end
$var wire 1 N tx_tready $end
$var reg 48 . local_time_sec [47:0] $end
$var reg 32 / local_time_ns [31:0] $end
$var reg 1 0 pps_out $end
$var reg 1 1 clock_locked $end
$var reg 32 2 offset_from_master [31:0] $end
$var reg 32 3 mean_path_delay [31:0] $end
$var reg 1 4 ofm_threshold_alarm $end
$var reg 1 5 mpd_threshold_alarm $end
$var reg 3 6 ptp_port_state [2:0] $end
$var reg 1 7 grandmaster_changed $end
$var reg 64 8 current_gm_id [63:0] $end
$var reg 1 9 amt_violation $end
$var reg 1 : forced_master_event $end
$var wire 1 O cfg_slave_only $end
$var wire 1 P cfg_forced_master $end
$var wire 8 Q cfg_domain_num [7:0] $end
$var reg 256 B cfg_amt_table [255:0] $end
$var wire 4 R cfg_amt_valid [3:0] $end
$var reg 1 S parser_rx_valid $end
$var reg 4 T parser_msg_type [3:0] $end
$var reg 8 U parser_domain_num [7:0] $end
$var reg 64 V parser_src_port_id [63:0] $end
$var reg 16 W parser_seq_id [15:0] $end
$var reg 64 X parser_correction_field [63:0] $end
$var reg 80 Y parser_origin_ts [79:0] $end
$var reg 80 Z parser_hw_timestamp [79:0] $end
$var reg 80 [ parser_precise_origin_ts [79:0] $end
$var reg 80 \ parser_recv_ts [79:0] $end
$var reg 64 ] parser_req_port_id [63:0] $end
$var reg 1 ^ parser_announce_valid $end
$var reg 8 _ parser_ann_prio1 [7:0] $end
$var reg 8 ` parser_ann_clk_class [7:0] $end
$var reg 8 a parser_ann_clk_acc [7:0] $end
$var reg 16 b parser_ann_clk_var [15:0] $end
$var reg 8 c parser_ann_prio2 [7:0] $end
$var reg 64 d parser_ann_gm_id [63:0] $end
$var reg 16 e parser_ann_steps [15:0] $end
$var reg 8 f parser_ann_ts [7:0] $end
$var reg 1 g dreq_valid $end
$var reg 16 h dreq_seq_id [15:0] $end
$var reg 80 i dreq_ts [79:0] $end
$var reg 1 j dreq_ack $end
$var reg 80 k dreq_hw_ts [79:0] $end
$scope module u_parser $end
$var wire 1 E clk $end
$var wire 1 F rst_n $end
$var wire 8 G rx_tdata [7:0] $end
$var wire 1 H rx_tvalid $end
$var wire 1 I rx_tlast $end
$var wire 1 J rx_tuser $end
$var wire 80 K phy_rx_timestamp [79:0] $end
$var reg 1 S ptp_rx_valid $end
$var reg 4 T ptp_msg_type [3:0] $end
$var reg 8 U ptp_domain_num [7:0] $end
$var reg 64 V ptp_src_port_id [63:0] $end
$var reg 16 W ptp_seq_id [15:0] $end
$var reg 64 X ptp_correction_field [63:0] $end
$var reg 80 Y ptp_origin_ts [79:0] $end
$var reg 80 Z ptp_hw_timestamp [79:0] $end
$var reg 80 [ ptp_precise_origin_ts [79:0] $end
$var reg 80 \ ptp_recv_ts [79:0] $end
$var reg 64 ] ptp_req_port_id [63:0] $end
$var reg 1 ^ ptp_announce_valid $end
$var reg 8 _ ptp_announce_priority1 [7:0] $end
$var reg 8 ` ptp_announce_clock_class [7:0] $end
$var reg 8 a ptp_announce_clock_accuracy [7:0] $end
$var reg 16 b ptp_announce_clock_variance [15:0] $end
$var reg 8 c ptp_announce_priority2 [7:0] $end
$var reg 64 d ptp_announce_gm_id [63:0] $end
$var reg 16 e ptp_announce_steps_removed [15:0] $end
$var reg 8 f ptp_announce_time_source [7:0] $end
$var reg 4 l state $end
$var reg 8 m byte_cnt [7:0] $end
$var reg 16 n ethertype_sr [15:0] $end
$var reg 8 o buf_idx [7:0] $end
$var reg 1 p is_ptp_over_eth $end
$var reg 1 q is_ptp_over_udp $end
$var reg 80 r captured_hw_ts [79:0] $end
$upscope $end
$scope module u_sync $end
$var wire 1 E clk $end
$var reg 1 s rst_n $end
$var wire 1 t rx_ptp_valid $end
$var wire 4 u rx_msg_type [3:0] $end
$var wire 8 v rx_domain_num [7:0] $end
$var wire 64 w rx_src_port_id [63:0] $end
$var wire 16 x rx_seq_id [15:0] $end
$var wire 64 y rx_correction_field [63:0] $end
$var wire 80 z rx_origin_ts [79:0] $end
$var wire 80 { rx_hw_timestamp [79:0] $end
$var wire 80 | rx_precise_origin_ts [79:0] $end
$var wire 80 } rx_recv_ts [79:0] $end
$var wire 64 ~ rx_req_port_id [63:0] $end
$var reg 1 g tx_delay_req_valid $end
$var reg 16 h tx_delay_req_seq_id [15:0] $end
$var reg 80 i tx_delay_req_ts [79:0] $end
$var wire 1 !! tx_delay_req_ack $end
$var wire 80 "! tx_hw_timestamp [79:0] $end
$var wire 1 #! rx_announce_valid $end
$var wire 8 $! rx_announce_priority1 [7:0] $end
$var wire 8 %! rx_announce_clock_class [7:0] $end
$var wire 8 &! rx_announce_clock_accuracy [7:0] $end
$var wire 16 '! rx_announce_clock_variance [15:0] $end
$var wire 8 (! rx_announce_priority2 [7:0] $end
$var wire 64 )! rx_announce_gm_id [63:0] $end
$var wire 16 *! rx_announce_steps_removed [15:0] $end
$var wire 8 +! rx_announce_time_source [7:0] $end
$var reg 48 . local_time_sec [47:0] $end
$var reg 32 / local_time_ns [31:0] $end
$var reg 1 0 pps_out $end
$var reg 1 1 clock_locked $end
$var reg 32 2 offset_from_master [31:0] $end
$var reg 32 3 mean_path_delay [31:0] $end
$var reg 1 4 ofm_threshold_alarm $end
$var reg 1 5 mpd_threshold_alarm $end
$var reg 3 6 ptp_port_state [2:0] $end
$var reg 1 7 grandmaster_changed $end
$var reg 64 8 current_gm_id [63:0] $end
$var wire 1 O cfg_slave_only $end
$var wire 1 P cfg_forced_master $end
$var wire 8 Q cfg_domain_num [7:0] $end
$var wire 256 ,! cfg_amt_table [255:0] $end
$var wire 4 R cfg_amt_valid [3:0] $end
$var reg 1 9 amt_violation $end
$var reg 1 : forced_master_event $end
$var reg 48 -! hw_sec [47:0] $end
$var reg 32 .! hw_ns [31:0] $end
$var reg 48 /! corr_sec [47:0] $end
$var reg 32 0! corr_ns [31:0] $end
$var reg 1 1! pps_r $end
$var reg 80 2! t1_timestamp [79:0] $end
$var reg 80 3! t2_timestamp [79:0] $end
$var reg 80 4! t3_timestamp [79:0] $end
$var reg 80 5! t4_timestamp [79:0] $end
$var reg 1 6! t1_valid $end
$var reg 1 7! t2_valid $end
$var reg 1 8! t3_valid $end
$var reg 1 9! t4_valid $end
$var reg 16 :! sync_seq_id_latch [15:0] $end
$var reg 16 ;! dreq_seq_id_latch [15:0] $end
$var reg 64 <! t2_minus_t1 [63:0] $end
$var reg 64 =! t4_minus_t3 [63:0] $end
$var reg 64 >! offset_calc [63:0] $end
$var reg 64 ?! mpd_calc [63:0] $end
$var reg 1 @! measure_valid $end
$var reg 48 A! servo_integrator [47:0] $end
$var reg 32 B! servo_p_term [31:0] $end
$var reg 32 C! servo_i_term [31:0] $end
$var reg 32 D! servo_correction [31:0] $end
$var reg 1 E! servo_update $end
$var reg 8 F! bmca_priority1 [7:0] $end
$var reg 8 G! bmca_clock_class [7:0] $end
$var reg 8 H! bmca_clock_accuracy [7:0] $end
$var reg 16 I! bmca_clock_variance [15:0] $end
$var reg 8 J! bmca_priority2 [7:0] $end
$var reg 64 K! bmca_gm_id [63:0] $end
$var reg 16 L! bmca_steps_removed [15:0] $end
$var reg 1 M! bmca_valid $end
$var reg 64 N! current_gm_id_r [63:0] $end
$var reg 1 O! gm_changed_r $end
$var reg 32 P! announce_timer [31:0] $end
$var reg 1 Q! announce_timeout $end
$var reg 32 R! dreq_timer [31:0] $end
$var reg 1 S! dreq_trigger $end
$var reg 16 T! dreq_seq_id_cnt [15:0] $end
$var reg 1 U! amt_pass $end
$var reg 1 V! amt_viol_r $end
$var reg 3 W! port_state [2:0] $end
$var reg 1 X! forced_master_evt_r $end
$var reg 64 Y! t1_ns [63:0] $end
$var reg 64 Z! t2_ns [63:0] $end
$var reg 64 [! t3_ns [63:0] $end
$var reg 64 \! t4_ns [63:0] $end
$var reg 1 ]! all_ts_valid $end
$var reg 48 ^! new_integrator [47:0] $end
$scope begin Block290_3 $end
$var reg 33 _! adjusted_ns [32:0] $end
$upscope $end
$scope begin Block318_5 $end
$var reg 32 `! i [31:0] $end
$upscope $end
$scope begin Block367_7 $end
$var reg 1 a! better $end
$upscope $end
$scope function ts_to_ns $end
$upscope $end
$upscope $end
$scope module u_framer $end
$var wire 1 E clk $end
$var wire 1 F rst_n $end
$var wire 1 b! tx_delay_req_valid $end
$var wire 16 c! tx_delay_req_seq_id [15:0] $end
$var wire 80 d! tx_delay_req_ts [79:0] $end
$var reg 8 * tx_tdata [7:0] $end
$var reg 1 + tx_tvalid $end
$var reg 1 , tx_tlast $end
$var wire 1 N tx_tready $end
$var reg 1 j tx_ack $end
$var reg 80 k tx_hw_timestamp [79:0] $end
$var wire 80 L phy_tx_timestamp [79:0] $end
$var wire 1 M phy_tx_ts_valid $end
$var reg 2 e! state $end
$var reg 7 f! byte_idx [6:0] $end
$var reg 1 g! frame_ready $end
$scope task build_frame $end
$var reg 16 h! seq_id [15:0] $end
$var reg 80 i! origin_ts [79:0] $end
$scope begin Block117_14 $end
$var reg 32 j! i [31:0] $end
$upscope $end
$scope begin Block119_15 $end
$var reg 32 k! i [31:0] $end
$upscope $end
$upscope $end
$upscope $end
$upscope $end
$scope begin Block251_21 $end
$scope begin Block372_23 $end
$var reg 32 l! wait_cnt [31:0] $end
$upscope $end
$upscope $end
$scope task send_frame $end
$upscope $end
$scope function build_announce_frame $end
$upscope $end
$scope function build_sync_frame $end
$upscope $end
$scope function build_followup_frame $end
$upscope $end
$upscope $end
$enddefinitions $end

#0
$dumpvars
0!
0!!
0"
b0 "!
b0 #
0#!
0$
b0 $!
0%
b0 %!
0&
b0 &!
b0 '
b0 '!
b0 (
b0 (!
0)
b0 )!
b0 *
b0 *!
0+
b0 +!
0,
b0 ,!
1-
bx -!
bx .
bx .!
bx /
bx /!
x0
bx 0!
x1
x1!
bx 2
bx 2!
bx 3
bx 3!
x4
bx 4!
x5
bx 5!
bx 6
x6!
x7
x7!
bx 8
x8!
x9
x9!
x:
bx :!
b111110100000000000000001111010000100100000 ;
bx ;!
b111110100000000000000001111010000110000100 <
bx <!
b111110100000000000000010010010011111000000 =
bx =!
b111110100000000000000010010010100000111000 >
bx >!
1?
bx ?!
0@
x@!
b1111111 A
bx A!
b0 B
bx B!
b0 C
bx C!
b0 D
bx D!
0E
xE!
0F
bx F!
b0 G
bx G!
0H
bx H!
0I
bx I!
0J
bx J!
b0 K
bx K!
b0 L
bx L!
0M
xM!
1N
bx N!
1O
xO!
0P
bx P!
b1111111 Q
xQ!
b0 R
bx R!
0S
xS!
b0 T
bx T!
b0 U
1U!
b0 V
xV!
b0 W
bx W!
b0 X
xX!
b0 Y
bx Y!
b0 Z
bx Z!
b0 [
bx [!
b0 \
bx \!
b0 ]
x]!
0^
bx ^!
b0 _
bx _!
b0 `
b100 `!
b0 a
xa!
b0 b
xb!
b0 c
bx c!
b0 d
bx d!
b0 e
b0 e!
b0 f
b0 f!
xg
0g!
bx h
bx h!
bx i
bx i!
0j
b0 j!
b0 k
b0 k!
b0 l
b0 l!
b0 m
b0 n
b0 o
0p
0q
b0 r
0s
0t
b0 u
b0 v
b0 w
b0 x
b0 y
b0 z
b0 {
b0 |
b0 }
b0 ~
$end

#4000
1!
b0 -!
b0 .
b0 .!
b0 /
b0 /!
00
b0 0!
01
01!
b0 2
b0 2!
b0 3
b0 3!
04
b0 4!
05
b0 5!
b0 6
06!
07
07!
b0 8
08!
09
09!
0:
b0 :!
b0 ;!
b0 <!
b0 =!
b0 >!
b0 ?!
0@!
b0 A!
b0 B!
b0 C!
b0 D!
1E
0E!
b11111111 F!
b11111111 G!
b11111110 H!
b1111111111111111 I!
b11111111 J!
b0 K!
b0 L!
0M!
b0 N!
0O!
b0 P!
0Q!
b0 R!
0S!
b0 T!
0V!
b0 W!
0X!
b0 Y!
b0 Z!
b0 [!
b0 \!
0]!
0b!
b0 c!
b0 d!
0g
b0 h
b0 i

#8000
0!
0E

#12000
1!
1E

#16000
0!
0E

#20000
1!
1E

#24000
0!
0E

#28000
1!
1E

#32000
0!
0E

#36000
1!
1E

#40000
0!
0E

#44000
1!
1E

#48000
0!
0E

#52000
1!
1E

#56000
0!
0E

#60000
1!
1E

#64000
0!
0E

#68000
1!
1E

#72000
0!
0E

#76000
1!
1"
b1000 .!
b1000 /
b1000 0!
b1 6
1E
1F
b1 W!
b1000 d!
b1000 i
1s

#80000
0!
0E

#84000
1!
b10000 .!
b10000 /
b10000 0!
1E
b10000 d!
b10000 i

#88000
0!
0E

#92000
1!
b11000 .!
b11000 /
b11000 0!
1E
b11000 d!
b11000 i

#96000
0!
0E

#100000
1!
b100000 .!
b100000 /
b100000 0!
1E
b100000 d!
b100000 i

#104000
0!
0E

#108000
1!
b101000 .!
b101000 /
b101000 0!
1E
b101000 d!
b101000 i

#112000
0!
0E

#116000
1!
b110000 .!
b110000 /
b110000 0!
1E
b110000 d!
b110000 i

#120000
0!
0E

#124000
1!
b111000 .!
b111000 /
b111000 0!
1E
b111000 d!
b111000 i

#128000
0!
0E

#132000
1!
b1000000 .!
b1000000 /
b1000000 0!
1E
b1000000 d!
b1000000 i

#136000
0!
0E

#140000
1!
b1001000 .!
b1001000 /
b1001000 0!
1E
b1001000 d!
b1001000 i

#144000
0!
0E

#148000
1!
b1 #
1$
1&
b1010000 .!
b1010000 /
b1010000 0!
1E
b1 G
1H
1J
b1010000 d!
b1010000 i

#152000
0!
0E

#156000
1!
0&
b1011000 .!
b1011000 /
b1011000 0!
1E
0J
b1011000 d!
b1011000 i
b1 l

#160000
0!
0E

#164000
1!
b11011 #
b1100000 .!
b1100000 /
b1100000 0!
1E
b11011 G
b1100000 d!
b1100000 i
b1 m

#168000
0!
0E

#172000
1!
b11001 #
b1101000 .!
b1101000 /
b1101000 0!
1E
b11001 G
b1101000 d!
b1101000 i
b10 m

#176000
0!
0E

#180000
1!
b0 #
b1110000 .!
b1110000 /
b1110000 0!
1E
b0 G
b1110000 d!
b1110000 i
b11 m

#184000
0!
0E

#188000
1!
b1111000 .!
b1111000 /
b1111000 0!
1E
b1111000 d!
b1111000 i
b100 m

#192000
0!
0E

#196000
1!
b10000000 .!
b10000000 /
b10000000 0!
1E
b10000000 d!
b10000000 i
b101 m

#200000
0!
0E

#204000
1!
b11011110 #
b10001000 .!
b10001000 /
b10001000 0!
1E
b11011110 G
b10001000 d!
b10001000 i
b110 m

#208000
0!
0E

#212000
1!
b10101101 #
b10010000 .!
b10010000 /
b10010000 0!
1E
b10101101 G
b10010000 d!
b10010000 i
b111 m

#216000
0!
0E

#220000
1!
b10111110 #
b10011000 .!
b10011000 /
b10011000 0!
1E
b10111110 G
b10011000 d!
b10011000 i
b1000 m

#224000
0!
0E

#228000
1!
b11101111 #
b10100000 .!
b10100000 /
b10100000 0!
1E
b11101111 G
b10100000 d!
b10100000 i
b1001 m

#232000
0!
0E

#236000
1!
b0 #
b10101000 .!
b10101000 /
b10101000 0!
1E
b0 G
b10101000 d!
b10101000 i
b1010 m

#240000
0!
0E

#244000
1!
b1 #
b10110000 .!
b10110000 /
b10110000 0!
1E
b1 G
b10110000 d!
b10110000 i
b1011 m

#248000
0!
0E

#252000
1!
b10001000 #
b10111000 .!
b10111000 /
b10111000 0!
1E
b10001000 G
b10111000 d!
b10111000 i
b1100 m

#256000
0!
0E

#260000
1!
b11110111 #
b11000000 .!
b11000000 /
b11000000 0!
1E
b11110111 G
b11000000 d!
b11000000 i
b1101 m
b1000100000000000 n

#264000
0!
0E

#268000
1!
b1011 #
b11001000 .!
b11001000 /
b11001000 0!
1E
b1011 G
b11001000 d!
b11001000 i
b10 l
b1110 m
b1000100011110111 n
1p

#272000
0!
0E

#276000
1!
b10 #
b11010000 .!
b11010000 /
b11010000 0!
1E
b10 G
b11010000 d!
b11010000 i
b1 o

#280000
0!
0E

#284000
1!
b0 #
b11011000 .!
b11011000 /
b11011000 0!
1E
b0 G
b11011000 d!
b11011000 i
b10 o

#288000
0!
0E

#292000
1!
b1000000 #
b11100000 .!
b11100000 /
b11100000 0!
1E
b1000000 G
b11100000 d!
b11100000 i
b11 o

#296000
0!
0E

#300000
1!
b1111111 #
b11101000 .!
b11101000 /
b11101000 0!
1E
b1111111 G
b11101000 d!
b11101000 i
b100 o

#304000
0!
0E

#308000
1!
b0 #
b11110000 .!
b11110000 /
b11110000 0!
1E
b0 G
b11110000 d!
b11110000 i
b101 o

#312000
0!
0E

#316000
1!
b11111000 .!
b11111000 /
b11111000 0!
1E
b11111000 d!
b11111000 i
b110 o

#320000
0!
0E

#324000
1!
b1000 #
b100000000 .!
b100000000 /
b100000000 0!
1E
b1000 G
b100000000 d!
b100000000 i
b111 o

#328000
0!
0E

#332000
1!
b0 #
b100001000 .!
b100001000 /
b100001000 0!
1E
b0 G
b100001000 d!
b100001000 i
b1000 o

#336000
0!
0E

#340000
1!
b100010000 .!
b100010000 /
b100010000 0!
1E
b100010000 d!
b100010000 i
b1001 o

#344000
0!
0E

#348000
1!
b100011000 .!
b100011000 /
b100011000 0!
1E
b100011000 d!
b100011000 i
b1010 o

#352000
0!
0E

#356000
1!
b100100000 .!
b100100000 /
b100100000 0!
1E
b100100000 d!
b100100000 i
b1011 o

#360000
0!
0E

#364000
1!
b100101000 .!
b100101000 /
b100101000 0!
1E
b100101000 d!
b100101000 i
b1100 o

#368000
0!
0E

#372000
1!
b100110000 .!
b100110000 /
b100110000 0!
1E
b100110000 d!
b100110000 i
b1101 o

#376000
0!
0E

#380000
1!
b100111000 .!
b100111000 /
b100111000 0!
1E
b100111000 d!
b100111000 i
b1110 o

#384000
0!
0E

#388000
1!
b101000000 .!
b101000000 /
b101000000 0!
1E
b101000000 d!
b101000000 i
b1111 o

#392000
0!
0E

#396000
1!
b101001000 .!
b101001000 /
b101001000 0!
1E
b101001000 d!
b101001000 i
b10000 o

#400000
0!
0E

#404000
1!
b101010000 .!
b101010000 /
b101010000 0!
1E
b101010000 d!
b101010000 i
b10001 o

#408000
0!
0E

#412000
1!
b101011000 .!
b101011000 /
b101011000 0!
1E
b101011000 d!
b101011000 i
b10010 o

#416000
0!
0E

#420000
1!
b101100000 .!
b101100000 /
b101100000 0!
1E
b101100000 d!
b101100000 i
b10011 o

#424000
0!
0E

#428000
1!
b10101010 #
b101101000 .!
b101101000 /
b101101000 0!
1E
b10101010 G
b101101000 d!
b101101000 i
b10100 o

#432000
0!
0E

#436000
1!
b10111011 #
b101110000 .!
b101110000 /
b101110000 0!
1E
b10111011 G
b101110000 d!
b101110000 i
b10101 o

#440000
0!
0E

#444000
1!
b11001100 #
b101111000 .!
b101111000 /
b101111000 0!
1E
b11001100 G
b101111000 d!
b101111000 i
b10110 o

#448000
0!
0E

#452000
1!
b11011101 #
b110000000 .!
b110000000 /
b110000000 0!
1E
b11011101 G
b110000000 d!
b110000000 i
b10111 o

#456000
0!
0E

#460000
1!
b11101110 #
b110001000 .!
b110001000 /
b110001000 0!
1E
b11101110 G
b110001000 d!
b110001000 i
b11000 o

#464000
0!
0E

#468000
1!
b11111111 #
b110010000 .!
b110010000 /
b110010000 0!
1E
b11111111 G
b110010000 d!
b110010000 i
b11001 o

#472000
0!
0E

#476000
1!
b0 #
b110011000 .!
b110011000 /
b110011000 0!
1E
b0 G
b110011000 d!
b110011000 i
b11010 o

#480000
0!
0E

#484000
1!
b1 #
b110100000 .!
b110100000 /
b110100000 0!
1E
b1 G
b110100000 d!
b110100000 i
b11011 o

#488000
0!
0E

#492000
1!
b0 #
b110101000 .!
b110101000 /
b110101000 0!
1E
b0 G
b110101000 d!
b110101000 i
b11100 o

#496000
0!
0E

#500000
1!
b1 #
b110110000 .!
b110110000 /
b110110000 0!
1E
b1 G
b110110000 d!
b110110000 i
b11101 o

#504000
0!
0E

#508000
1!
b0 #
b110111000 .!
b110111000 /
b110111000 0!
1E
b0 G
b110111000 d!
b110111000 i
b11110 o

#512000
0!
0E

#516000
1!
b1 #
b111000000 .!
b111000000 /
b111000000 0!
1E
b1 G
b111000000 d!
b111000000 i
b11111 o

#520000
0!
0E

#524000
1!
b101 #
b111001000 .!
b111001000 /
b111001000 0!
1E
b101 G
b111001000 d!
b111001000 i
b100000 o

#528000
0!
0E

#532000
1!
b11111110 #
b111010000 .!
b111010000 /
b111010000 0!
1E
b11111110 G
b111010000 d!
b111010000 i
b100001 o

#536000
0!
0E

#540000
1!
b0 #
b111011000 .!
b111011000 /
b111011000 0!
1E
b0 G
b111011000 d!
b111011000 i
b100010 o

#544000
0!
0E

#548000
1!
b111100000 .!
b111100000 /
b111100000 0!
1E
b111100000 d!
b111100000 i
b100011 o

#552000
0!
0E

#556000
1!
b111101000 .!
b111101000 /
b111101000 0!
1E
b111101000 d!
b111101000 i
b100100 o

#560000
0!
0E

#564000
1!
b111110000 .!
b111110000 /
b111110000 0!
1E
b111110000 d!
b111110000 i
b100101 o

#568000
0!
0E

#572000
1!
b111111000 .!
b111111000 /
b111111000 0!
1E
b111111000 d!
b111111000 i
b100110 o

#576000
0!
0E

#580000
1!
b1000000000 .!
b1000000000 /
b1000000000 0!
1E
b1000000000 d!
b1000000000 i
b100111 o

#584000
0!
0E

#588000
1!
b1000001000 .!
b1000001000 /
b1000001000 0!
1E
b1000001000 d!
b1000001000 i
b101000 o

#592000
0!
0E

#596000
1!
b1000010000 .!
b1000010000 /
b1000010000 0!
1E
b1000010000 d!
b1000010000 i
b101001 o

#600000
0!
0E

#604000
1!
b1000011000 .!
b1000011000 /
b1000011000 0!
1E
b1000011000 d!
b1000011000 i
b101010 o

#608000
0!
0E

#612000
1!
b1000100000 .!
b1000100000 /
b1000100000 0!
1E
b1000100000 d!
b1000100000 i
b101011 o

#616000
0!
0E

#620000
1!
1#!
bx *!
bx +!
b1000101000 .!
b1000101000 /
b1000101000 0!
1E
1S
b1011 T
b1111111 U
b1 V
b1 W
bx Y
1^
b1000101000 d!
bx e
bx f
b1000101000 i
b0 l
b101100 o
1t
b1011 u
b1111111 v
b1 w
b1 x
bx z

#624000
0!
0E

#628000
1!
0#!
b1000110000 .!
b1000110000 /
b1000110000 0!
1E
b0 F!
b0 G!
b0 H!
b0 I!
b0 J!
bx L!
1M!
b101100101101000001011110000 P!
0S
0^
1a!
b1000110000 d!
b1000110000 i
b1 l
b0 m
b0 o
0p
0t

#632000
0!
0E

#636000
1!
b1000111000 .!
b1000111000 /
b1000111000 0!
b10 6
1E
b101100101101000001011101111 P!
b10 W!
b1000111000 d!
b1000111000 i
b1 m

#640000
0!
0E

#644000
1!
b10000000 #
b1001000000 .!
b1001000000 /
b1001000000 0!
1E
b10000000 G
b101100101101000001011101110 P!
b111011100110101100101000 R!
1S!
b1 T!
1b!
b1001000000 d!
1g
b1001000000 i
b10 m

#648000
0!
0E

#652000
1!
1!!
b10000111 #
b1001001000 .!
b1001001000 /
b1001001000 0!
1E
b10000111 G
b101100101101000001011101101 P!
b111011100110101100100111 R!
0S!
0b!
b1001001000 d!
b1 e!
0g
1g!
b0 h!
b1001001000 i
b1001000000 i!
1j
b11110 j!
b100010 k!
b11 m

#656000
0!
0E

#660000
1!
0!!
b100000 #
1%
b1 *
1+
b1001010000 .!
b1001010000 /
b1001010000 0!
18!
1E
b100000 G
1I
b101100101101000001011101100 P!
b111011100110101100100110 R!
b1001010000 d!
b1 f!
b1001010000 i
0j
b100 m

#664000
0!
0E

#668000
1!
b0 #
0$
0%
b11011 *
b1001011000 .!
b1001011000 /
b1001011000 0!
1E
b0 G
0H
0I
b101100101101000001011101011 P!
b111011100110101100100101 R!
b1001011000 d!
b10 f!
b1001011000 i
b0 l
b101 m

#672000
0!
0E

#676000
1!
b11001 *
b1001100000 .!
b1001100000 /
b1001100000 0!
1E
b101100101101000001011101010 P!
b111011100110101100100100 R!
b1001100000 d!
b11 f!
b1001100000 i

#680000
0!
0E

#684000
1!
b0 *
b1001101000 .!
b1001101000 /
b1001101000 0!
1E
b101100101101000001011101001 P!
b111011100110101100100011 R!
b1001101000 d!
b100 f!
b1001101000 i

#688000
0!
0E

#692000
1!
b1001110000 .!
b1001110000 /
b1001110000 0!
1E
b101100101101000001011101000 P!
b111011100110101100100010 R!
b1001110000 d!
b101 f!
b1001110000 i

#696000
0!
0E

#700000
1!
b1001111000 .!
b1001111000 /
b1001111000 0!
1E
b101100101101000001011100111 P!
b111011100110101100100001 R!
b1001111000 d!
b110 f!
b1001111000 i

#704000
0!
0E

#708000
1!
b11011110 *
b1010000000 .!
b1010000000 /
b1010000000 0!
1E
b101100101101000001011100110 P!
b111011100110101100100000 R!
b1010000000 d!
b111 f!
b1010000000 i

#712000
0!
0E

#716000
1!
b10101101 *
b1010001000 .!
b1010001000 /
b1010001000 0!
1E
b101100101101000001011100101 P!
b111011100110101100011111 R!
b1010001000 d!
b1000 f!
b1010001000 i

#720000
0!
0E

#724000
1!
b10111110 *
b1010010000 .!
b1010010000 /
b1010010000 0!
1E
b101100101101000001011100100 P!
b111011100110101100011110 R!
b1010010000 d!
b1001 f!
b1010010000 i

#728000
0!
0E

#732000
1!
b11101111 *
b1010011000 .!
b1010011000 /
b1010011000 0!
1E
b101100101101000001011100011 P!
b111011100110101100011101 R!
b1010011000 d!
b1010 f!
b1010011000 i

#736000
0!
0E

#740000
1!
b0 *
b1010100000 .!
b1010100000 /
b1010100000 0!
1E
b101100101101000001011100010 P!
b111011100110101100011100 R!
b1010100000 d!
b1011 f!
b1010100000 i

#744000
0!
0E

#748000
1!
b1 *
b1010101010111011110011001101110111101110111111110000000000000010 ,!
b1010101000 .!
b1010101000 /
b1010101000 0!
b1010101010111011110011001101110111101110111111110000000000000010 B
b1 C
b1 D
1E
b101100101101000001011100001 P!
b1 R
b111011100110101100011011 R!
0U!
b100 `!
b1010101000 d!
b1100 f!
b1010101000 i

#752000
0!
0E

#756000
1!
b1 #
1$
1&
b10001000 *
b1010110000 .!
b1010110000 /
b1010110000 0!
1E
b1 G
1H
1J
b101100101101000001011100000 P!
b111011100110101100011010 R!
b1010110000 d!
b1101 f!
b1010110000 i

#760000
0!
0E

#764000
1!
0&
b11110111 *
b1010111000 .!
b1010111000 /
b1010111000 0!
1E
0J
b101100101101000001011011111 P!
b111011100110101100011001 R!
b1010111000 d!
b1110 f!
b1010111000 i
b1 l
b0 m

#768000
0!
0E

#772000
1!
b11011 #
b1 *
b1011000000 .!
b1011000000 /
b1011000000 0!
1E
b11011 G
b101100101101000001011011110 P!
b111011100110101100011000 R!
b1011000000 d!
b1111 f!
b1011000000 i
b1 m

#776000
0!
0E

#780000
1!
b11001 #
b10 *
b1011001000 .!
b1011001000 /
b1011001000 0!
1E
b11001 G
b101100101101000001011011101 P!
b111011100110101100010111 R!
b1011001000 d!
b10000 f!
b1011001000 i
b10 m

#784000
0!
0E

#788000
1!
b0 #
b0 *
b1011010000 .!
b1011010000 /
b1011010000 0!
1E
b0 G
b101100101101000001011011100 P!
b111011100110101100010110 R!
b1011010000 d!
b10001 f!
b1011010000 i
b11 m

#792000
0!
0E

#796000
1!
b101100 *
b1011011000 .!
b1011011000 /
b1011011000 0!
1E
b101100101101000001011011011 P!
b111011100110101100010101 R!
b1011011000 d!
b10010 f!
b1011011000 i
b100 m

#800000
0!
0E

#804000
1!
b1111111 *
b1011100000 .!
b1011100000 /
b1011100000 0!
1E
b101100101101000001011011010 P!
b111011100110101100010100 R!
b1011100000 d!
b10011 f!
b1011100000 i
b101 m

#808000
0!
0E

